vcdTester/unit_tb/dump.vcd
$date
	Wed May 15 11:05:12 2024
$end
$version
	Icarus Verilog
$end
$timescale
	1ps
$end
$scope module tb $end
$var wire 1 ! clk $end
$var wire 1 " rst_n $end
$var wire 1 # wfull $end
$var wire 1 $ rempty $end
$var wire 32 % rdata [31:0] $end
$var parameter 32 & WID $end
$var reg 32 ' ID [31:0] $end
$var reg 32 ( Index [31:0] $end
$var reg 32 ) mark [31:0] $end
$var reg 32 * marker [31:0] $end
$var reg 32 + marker0 [31:0] $end
$var reg 32 , marker1 [31:0] $end
$var reg 32 - marker2 [31:0] $end
$var reg 32 . marker3 [31:0] $end
$var reg 256 / markstr [255:0] $end
$var reg 1 0 rclk $end
$var reg 1 1 readx $end
$var reg 1 2 rst_nr $end
$var reg 1 3 rst_nw $end
$var reg 1024 4 testname [1023:0] $end
$var reg 1 5 wclk $end
$var reg 32 6 wdata [31:0] $end
$var reg 1 7 writex $end
$var integer 32 8 corrects [31:0] $end
$var integer 32 9 cycle [31:0] $end
$var integer 32 : cycles [31:0] $end
$var integer 32 ; errors [31:0] $end
$var integer 32 < panics [31:0] $end
$var integer 32 = seqptr [31:0] $end
$var integer 32 > wrongs [31:0] $end
$scope module dut $end
$var wire 1 0 rclk $end
$var wire 1 1 readx $end
$var wire 1 ? readx0 $end
$var wire 1 @ readx1 $end
$var wire 1 2 rst_nr $end
$var wire 1 3 rst_nw $end
$var wire 64 A sign_version [63:0] $end
$var wire 1 5 wclk $end
$var wire 32 B wdata [31:0] $end
$var wire 1 # wfull $end
$var wire 1 7 writex $end
$var wire 1 C writex0 $end
$var wire 1 D writex1 $end
$var wire 1 E wfull1 $end
$var wire 1 F wfull0 $end
$var wire 1 G rempty1 $end
$var wire 1 H rempty0 $end
$var wire 1 $ rempty $end
$var wire 32 I rdata1 [31:0] $end
$var wire 32 J rdata0 [31:0] $end
$var wire 32 K rdata [31:0] $end
$var parameter 32 L WID $end
$var reg 1 M rptr $end
$var reg 1 N wptr $end
$scope module stage0 $end
$var wire 1 0 rclk $end
$var wire 1 ? readx $end
$var wire 1 H rempty $end
$var wire 1 2 rst_nr $end
$var wire 1 3 rst_nw $end
$var wire 64 O sign_version [63:0] $end
$var wire 1 5 wclk $end
$var wire 32 P wdata [31:0] $end
$var wire 1 F wfull $end
$var wire 1 C writex $end
$var wire 1 Q wtoken_sync $end
$var wire 1 R rtoken_sync $end
$var parameter 32 S WID $end
$var reg 32 T LVL_rdata [31:0] $end
$var reg 1 U rtoken $end
$var reg 1 V wtoken $end
$scope module syncr $end
$var wire 1 0 clk $end
$var wire 1 V din $end
$var wire 1 Q dout $end
$var wire 1 2 rst_n $end
$var wire 64 W sign_version [63:0] $end
$var parameter 32 X WID $end
$var reg 1 Y SYNCFLOP0 $end
$var reg 1 Q SYNCFLOP1 $end
$upscope $end
$scope module syncw $end
$var wire 1 5 clk $end
$var wire 1 U din $end
$var wire 1 R dout $end
$var wire 1 3 rst_n $end
$var wire 64 Z sign_version [63:0] $end
$var parameter 32 [ WID $end
$var reg 1 \ SYNCFLOP0 $end
$var reg 1 R SYNCFLOP1 $end
$upscope $end
$upscope $end
$scope module stage1 $end
$var wire 1 0 rclk $end
$var wire 1 @ readx $end
$var wire 1 G rempty $end
$var wire 1 2 rst_nr $end
$var wire 1 3 rst_nw $end
$var wire 64 ] sign_version [63:0] $end
$var wire 1 5 wclk $end
$var wire 32 ^ wdata [31:0] $end
$var wire 1 E wfull $end
$var wire 1 D writex $end
$var wire 1 _ wtoken_sync $end
$var wire 1 ` rtoken_sync $end
$var parameter 32 a WID $end
$var reg 32 b LVL_rdata [31:0] $end
$var reg 1 c rtoken $end
$var reg 1 d wtoken $end
$scope module syncr $end
$var wire 1 0 clk $end
$var wire 1 d din $end
$var wire 1 _ dout $end
$var wire 1 2 rst_n $end
$var wire 64 e sign_version [63:0] $end
$var parameter 32 f WID $end
$var reg 1 g SYNCFLOP0 $end
$var reg 1 _ SYNCFLOP1 $end
$upscope $end
$scope module syncw $end
$var wire 1 5 clk $end
$var wire 1 c din $end
$var wire 1 ` dout $end
$var wire 1 3 rst_n $end
$var wire 64 h sign_version [63:0] $end
$var parameter 32 i WID $end
$var reg 1 j SYNCFLOP0 $end
$var reg 1 ` SYNCFLOP1 $end
$upscope $end
$upscope $end
$upscope $end
$upscope $end
$enddefinitions $end
$comment Show the parameter values. $end
$dumpall
b1 i
b1 f
b100000 a
b1 [
b1 X
b100000 S
b100000 L
b100000 &
$end
#0
$dumpvars
0j
b11011101011110100010001000001100000001100100011 h
0g
b11011101011110100010001000001100000001100100011 e
0d
0c
b0 b
0`
0_
b0 ^
b1001001111100000100010001000001100000001100100011 ]
0\
b11011101011110100010001000001100000001100100011 Z
0Y
b11011101011110100010001000001100000001100100011 W
0V
0U
b0 T
0R
0Q
b0 P
b1001001111100000100010001000001100000001100100011 O
0N
0M
b0 K
b0 J
b0 I
1H
1G
0F
0E
0D
0C
b0 B
b1101001011010111100100011001000100000011000100011 A
0@
0?
b0 >
b0 =
b0 <
b0 ;
b0 :
b0 9
b0 8
07
b0 6
05
b0 4
03
02
01
00
b0 /
b0 .
b0 -
b0 ,
b0 +
b0 *
b0 )
b0 (
b0 '
b0 %
1$
0#
0"
0!
$end
#100000
1"
13
12
#10000000
b1 9
1!
15
10
#13000000
0!
05
#17000000
00
#23000000
b10 9
1!
15
#26000000
0!
05
#27000000
b11 9
10
#34000000
00
#36000000
b100 9
1!
15
#39000000
0!
05
#44000000
b101 9
10
#49000000
b110 9
1!
15
#51000000
00
#52000000
0!
05
#61000000
b111 9
10
#62000000
b1000 9
1!
15
#65000000
0!
05
#68000000
00
#75000000
b1001 9
1!
15
#78000000
b1010 9
10
0!
05
#85000000
00
#88000000
b1011 9
1!
15
#91000000
0!
05
#95000000
b1100 9
10
#101000000
b1101 9
1!
15
#102000000
00
#104000000
0!
05
#112000000
b1110 9
10
#114000000
b1111 9
1!
15
#117000000
0!
05
#119000000
00
#127000000
b10000 9
1!
15
#129000000
b10001 9
10
#130000000
0!
05
#136000000
00
#140000000
b10010 9
1!
15
#143000000
0!
05
#146000000
b10011 9
10
#153000000
b10100 9
1!
15
00
#156000000
0!
05
#163000000
b10101 9
10
#166000000
b10110 9
1!
15
#169000000
0!
05
#170000000
00
#179000000
b10111 9
1!
15
#180000000
b11000 9
10
#182000000
0!
05
#187000000
00
#192000000
b11001 9
1!
15
#195000000
0!
05
#197000000
b11010 9
10
#204000000
00
#205000000
b11011 9
1!
15
#208000000
0!
05
#214000000
b11100 9
10
#218000000
b11101 9
1!
15
#221000000
00
0!
05
#231000000
10
b11111 9
1!
15
#234000000
0!
05
#238000000
00
#244000000
b100000 9
1!
15
#247000000
0!
05
#248000000
b100001 9
10
#255000000
00
#257000000
b100010 9
1!
15
#260000000
0!
05
#265000000
b100011 9
10
#270000000
b100100 9
1!
15
#272000000
00
#273000000
0!
05
#282000000
b100101 9
10
#283000000
b100110 9
1!
15
#286000000
0!
05
#289000000
00
#296000000
b100111 9
1!
15
#299000000
b101000 9
10
0!
05
#306000000
00
#309000000
b101001 9
1!
15
#312000000
0!
05
#316000000
b101010 9
10
#322000000
b101011 9
1!
15
#323000000
00
#325000000
0!
05
#333000000
b101100 9
10
#335000000
b101101 9
1!
15
#338000000
0!
05
#340000000
00
#348000000
b101110 9
1!
15
#350000000
b101111 9
10
#351000000
0!
05
#357000000
00
#361000000
b110000 9
1!
15
#364000000
0!
05
#367000000
b110001 9
10
#374000000
b110010 9
1!
15
00
#377000000
0!
05
#384000000
b110011 9
10
#387000000
b110100 9
1!
15
#390000000
0!
05
#391000000
00
#400000000
b110101 9
1!
15
#401000000
b110110 9
10
#403000000
0!
05
#408000000
00
#413000000
b110111 9
1!
15
#416000000
0!
05
#418000000
b111000 9
10
#425000000
00
#426000000
b111001 9
1!
15
#429000000
0!
05
#435000000
b111010 9
10
#439000000
b111011 9
1!
15
#442000000
00
1C
b100000100010 6
b100000100010 B
b100000100010 P
b100000100010 ^
17
0!
05
#452000000
0C
1D
1F
b100000100010 %
b100000100010 K
1V
b100000100010 J
b100000100010 T
1N
10
b111101 9
1!
15
#455000000
0D
b0 6
b0 B
b0 P
b0 ^
07
0!
05
#459000000
00
#465000000
b111110 9
1!
15
#468000000
1D
b100001000011 6
b100001000011 B
b100001000011 P
b100001000011 ^
17
0!
05
#469000000
1Y
b111111 9
10
#476000000
00
#478000000
1#
0D
1E
1d
b100001000011 I
b100001000011 b
0N
b1000000 9
1!
15
#481000000
b0 6
b0 B
b0 P
b0 ^
07
0!
05
#486000000
0$
0H
1g
1Q
b1000001 9
10
#491000000
b1000010 9
1!
15
#493000000
1?
11
00
#494000000
0!
05
#503000000
0$
1H
0G
b100001000011 %
b100001000011 K
0?
1@
1U
1_
1M
b1000011 9
10
#504000000
1\
b1000100 9
1!
15
#507000000
0!
05
#510000000
00
#517000000
0#
0F
1R
b1000101 9
1!
15
#520000000
1$
b100000100010 %
b100000100010 K
1?
0@
1G
0M
1c
b1000110 9
10
0!
05
#527000000
0?
01
00
#530000000
1j
b1000111 9
1!
15
#533000000
1C
b101100101011 6
b101100101011 B
b101100101011 P
b101100101011 ^
17
0!
05
#537000000
b1001000 9
10
#543000000
1D
0C
0E
1F
b101100101011 %
b101100101011 K
1N
1`
0V
b101100101011 J
b101100101011 T
b1001001 9
1!
15
#544000000
00
#546000000
b110010100100 6
b110010100100 B
b110010100100 P
b110010100100 ^
0!
05
#554000000
0Y
b1001010 9
10
#556000000
1#
0D
1E
0d
b110010100100 I
b110010100100 b
0N
b1001011 9
1!
15
#559000000
b0 6
b0 B
b0 P
b0 ^
07
0!
05
#561000000
00
#569000000
b1001100 9
1!
15
#571000000
0$
0H
0Q
0g
b1001101 9
10
#572000000
0!
05
#578000000
1?
11
00
#582000000
b1001110 9
1!
15
#585000000
0!
05
#588000000
b110010100100 %
b110010100100 K
0?
1@
0G
1H
1M
0_
0U
b1001111 9
10
#595000000
0\
b1010000 9
1!
15
00
#598000000
0!
05
#605000000
1$
1G
b101100101011 %
b101100101011 K
1?
0@
0c
0M
b1010001 9
10
#608000000
0#
0F
0R
0j
b1010010 9
1!
15
#611000000
1C
0?
01
b1000100000110 6
b1000100000110 B
b1000100000110 P
b1000100000110 ^
17
0!
05
#612000000
00
#621000000
1D
0C
0E
1F
b1000100000110 %
b1000100000110 K
1N
0`
1V
b1000100000110 J
b1000100000110 T
b1010011 9
1!
15
#622000000
1Y
b1010100 9
10
#624000000
0D
b0 6
b0 B
b0 P
b0 ^
07
0!
05
#629000000
00
#634000000
b1010101 9
1!
15
#637000000
0!
05
#639000000
0$
0H
1Q
b1010110 9
10
#646000000
1?
11
00
#647000000
b1010111 9
1!
15
#650000000
0!
05
#656000000
1$
b110010100100 %
b110010100100 K
0?
1@
1H
1M
1U
b1011000 9
10
#660000000
1\
b1011001 9
1!
15
#663000000
00
1D
0@
01
b101001010100 6
b101001010100 B
b101001010100 P
b101001010100 ^
17
0!
05
#673000000
0D
b101001010100 %
b101001010100 K
1C
1E
0F
0N
1d
b101001010100 I
b101001010100 b
1R
10
b1011011 9
1!
15
#676000000
b10010011111 6
b10010011111 B
b10010011111 P
b10010011111 ^
0!
05
#680000000
00
#686000000
1#
0C
1F
0V
b10010011111 J
b10010011111 T
1N
b1011100 9
1!
15
#689000000
b0 6
b0 B
b0 P
b0 ^
07
0!
05
#690000000
1g
0Y
b1011101 9
10
#697000000
00
#699000000
b1011110 9
1!
15
#702000000
0!
05
#707000000
0$
0H
0G
0Q
1_
b1011111 9
10
#712000000
b1100000 9
1!
15
#714000000
1@
11
00
#715000000
0!
05
#724000000
b10010011111 %
b10010011111 K
1?
0@
1G
0M
1c
b1100001 9
10
#725000000
1j
b1100010 9
1!
15
#728000000
0!
05
#731000000
00
#738000000
0#
0E
1`
b1100011 9
1!
15
#741000000
1$
1H
b101001010100 %
b101001010100 K
0?
1@
0U
1M
b1100100 9
10
0!
05
#748000000
0@
01
00
#751000000
0\
b1100101 9
1!
15
#754000000
1D
b1000010001000 6
b1000010001000 B
b1000010001000 P
b1000010001000 ^
17
0!
05
#758000000
b1100110 9
10
#764000000
b1000010001000 %
b1000010001000 K
0#
1C
0D
0F
1E
0R
0d
b1000010001000 I
b1000010001000 b
0N
b1100111 9
1!
15
#765000000
00
#767000000
0C
b0 6
b0 B
b0 P
b0 ^
07
0!
05
#775000000
0g
b1101000 9
10
#777000000
b1101001 9
1!
15
#780000000
0!
05
#782000000
00
#790000000
b1101010 9
1!
15
#792000000
0$
0G
0_
b1101011 9
10
#793000000
0!
05
#799000000
1@
11
00
#803000000
b1101100 9
1!
15
#806000000
0!
05
#809000000
1$
1G
b10010011111 %
b10010011111 K
1?
0@
0c
0M
b1101101 9
10
#816000000
0j
b1101110 9
1!
15
0?
01
00
#819000000
0!
05
#826000000
b1101111 9
10
#829000000
0E
0`
b1110000 9
1!
15
#832000000
0!
05
#833000000
00
#842000000
b1110001 9
1!
15
#843000000
b1110010 9
10
#845000000
0!
05
#850000000
00
#855000000
b1110011 9
1!
15
#858000000
1C
b110001010101 6
b110001010101 B
b110001010101 P
b110001010101 ^
17
0!
05
#860000000
b1110100 9
10
#867000000
00
#868000000
0C
1D
1F
b110001010101 %
b110001010101 K
1V
b110001010101 J
b110001010101 T
1N
b1110101 9
1!
15
#871000000
b1000101111001 6
b1000101111001 B
b1000101111001 P
b1000101111001 ^
0!
05
#877000000
1Y
b1110110 9
10
#881000000
1#
0D
1E
0N
1d
b1000101111001 I
b1000101111001 b
b1110111 9
1!
15
#884000000
00
b0 6
b0 B
b0 P
b0 ^
07
0!
05
#894000000
0$
0H
1g
1Q
10
b1111001 9
1!
15
#897000000
0!
05
#901000000
1?
11
00
#907000000
b1111010 9
1!
15
#910000000
0!
05
#911000000
0$
1H
0G
b1000101111001 %
b1000101111001 K
0?
1@
1U
1_
1M
b1111011 9
10
#918000000
00
#920000000
1\
b1111100 9
1!
15
#923000000
0!
05
#928000000
1$
b110001010101 %
b110001010101 K
1?
0@
1G
0M
1c
b1111101 9
10
#933000000
0#
0F
1j
1R
b1111110 9
1!
15
#935000000
0?
01
00
#936000000
0!
05
#945000000
b1111111 9
10
#946000000
0E
1`
b10000000 9
1!
15
#949000000
1C
b111001110111 6
b111001110111 B
b111001110111 P
b111001110111 ^
17
0!
05
#952000000
00
#959000000
1D
0C
1F
b111001110111 %
b111001110111 K
1N
0V
b111001110111 J
b111001110111 T
b10000001 9
1!
15
#962000000
0Y
b10000010 9
10
b1001101110000 6
b1001101110000 B
b1001101110000 P
b1001101110000 ^
0!
05
#969000000
00
#972000000
1#
0D
1E
0d
b1001101110000 I
b1001101110000 b
0N
b10000011 9
1!
15
#975000000
b0 6
b0 B
b0 P
b0 ^
07
0!
05
#979000000
0$
0H
0Q
0g
b10000100 9
10
#985000000
b10000101 9
1!
15
#986000000
1?
11
00
#988000000
0!
05
#996000000
b1001101110000 %
b1001101110000 K
0?
1@
0G
1H
1M
0_
0U
b10000110 9
10
#998000000
0\
b10000111 9
1!
15
#1001000000
0!
05
#1003000000
00
#1011000000
0#
0F
0R
b10001000 9
1!
15
#1013000000
1$
1G
b111001110111 %
b111001110111 K
1?
0@
0c
0M
b10001001 9
10
#1014000000
0!
05
#1020000000
0?
01
00
#1024000000
0j
b10001010 9
1!
15
#1027000000
0!
05
#1030000000
b10001011 9
10
#1037000000
0E
0`
b10001100 9
1!
15
00
#1040000000
1C
b111010111110 6
b111010111110 B
b111010111110 P
b111010111110 ^
17
0!
05
#1047000000
b10001101 9
10
#1050000000
0C
1D
1F
b111010111110 %
b111010111110 K
1V
b111010111110 J
b111010111110 T
1N
b10001110 9
1!
15
#1053000000
b111000010001 6
b111000010001 B
b111000010001 P
b111000010001 ^
0!
05
#1054000000
00
#1063000000
1#
0D
1E
0N
1d
b111000010001 I
b111000010001 b
b10001111 9
1!
15
#1064000000
1g
1Y
b10010000 9
10
#1066000000
b0 6
b0 B
b0 P
b0 ^
07
0!
05
#1071000000
00
#1076000000
b10010001 9
1!
15
#1079000000
0!
05
#1081000000
0$
0H
0G
1Q
1_
b10010010 9
10
#1088000000
1?
11
00
#1089000000
b10010011 9
1!
15
#1092000000
0!
05
#1098000000
b111000010001 %
b111000010001 K
0?
1@
1H
1M
1U
b10010100 9
10
#1102000000
1\
b10010101 9
1!
15
#1105000000
00
0!
05
#1115000000
0#
1$
1G
b111010111110 %
b111010111110 K
1?
0@
0F
1c
0M
1R
10
b10010111 9
1!
15
#1118000000
1C
b100001011111 6
b100001011111 B
b100001011111 P
b100001011111 ^
17
0!
05
#1122000000
0?
01
00
#1128000000
1#
0C
1F
b100001011111 %
b100001011111 K
0V
b100001011111 J
b100001011111 T
1j
1N
b10011000 9
1!
15
#1131000000
b0 6
b0 B
b0 P
b0 ^
07
0!
05
#1132000000
0Y
b10011001 9
10
#1139000000
00
#1141000000
0#
0E
1`
b10011010 9
1!
15
#1144000000
0!
05
#1149000000
0$
0H
0Q
b10011011 9
10
#1154000000
b10011100 9
1!
15
#1156000000
1?
11
00
#1157000000
0!
05
#1166000000
1$
b111000010001 %
b111000010001 K
0?
1@
1H
1M
0U
b10011101 9
10
#1167000000
0\
b10011110 9
1!
15
#1170000000
1D
0@
01
b100111000011 6
b100111000011 B
b100111000011 P
b100111000011 ^
17
0!
05
#1173000000
00
#1180000000
b100111000011 %
b100111000011 K
0#
1C
0D
0F
1E
0R
0d
b100111000011 I
b100111000011 b
0N
b10011111 9
1!
15
#1183000000
0g
b10100000 9
10
b101101100010 6
b101101100010 B
b101101100010 P
b101101100010 ^
0!
05
#1190000000
00
#1193000000
1#
0C
1F
1N
1V
b101101100010 J
b101101100010 T
b10100001 9
1!
15
#1196000000
b0 6
b0 B
b0 P
b0 ^
07
0!
05
#1200000000
0$
0G
0_
1Y
b10100010 9
10
#1206000000
b10100011 9
1!
15
#1207000000
1@
11
00
#1209000000
0!
05
#1217000000
0$
0H
1G
b101101100010 %
b101101100010 K
1?
0@
1Q
0c
0M
b10100100 9
10
#1219000000
0j
b10100101 9
1!
15
#1222000000
0!
05
#1224000000
00
#1232000000
0#
0E
0`
b10100110 9
1!
15
#1234000000
1$
b100111000011 %
b100111000011 K
0?
1@
1H
1M
1U
b10100111 9
10
#1235000000
1D
b100011011001 6
b100011011001 B
b100011011001 P
b100011011001 ^
17
0!
05
#1241000000
0@
01
00
#1245000000
1#
0D
b100011011001 %
b100011011001 K
1E
0N
1d
b100011011001 I
b100011011001 b
1\
b10101000 9
1!
15
#1248000000
b0 6
b0 B
b0 P
b0 ^
07
0!
05
#1251000000
1g
b10101001 9
10
#1258000000
0#
0F
1R
b10101010 9
1!
15
00
#1261000000
1C
b111110011111 6
b111110011111 B
b111110011111 P
b111110011111 ^
17
0!
05
#1268000000
0$
0G
1_
b10101011 9
10
#1271000000
1#
0C
1F
1N
0V
b111110011111 J
b111110011111 T
b10101100 9
1!
15
#1274000000
1@
11
b0 6
b0 B
b0 P
b0 ^
07
0!
05
#1275000000
00
#1284000000
b10101101 9
1!
15
#1285000000
1$
1G
b111110011111 %
b111110011111 K
1?
0@
0Y
1c
0M
b10101110 9
10
#1287000000
0!
05
#1292000000
0?
01
00
#1297000000
1j
b10101111 9
1!
15
#1300000000
0!
05
#1302000000
0$
0H
0Q
b10110000 9
10
#1309000000
1?
11
00
#1310000000
0#
0E
1`
b10110001 9
1!
15
#1313000000
1D
b11110111111 6
b11110111111 B
b11110111111 P
b11110111111 ^
17
0!
05
#1319000000
1$
1H
b100011011001 %
b100011011001 K
0?
1@
0U
1M
b10110010 9
10
#1323000000
1#
0D
b11110111111 %
b11110111111 K
1E
0N
0d
b11110111111 I
b11110111111 b
0\
b10110011 9
1!
15
#1326000000
00
0@
01
b0 6
b0 B
b0 P
b0 ^
07
0!
05
#1336000000
0#
0F
0g
0R
10
b10110101 9
1!
15
#1339000000
0!
05
#1343000000
00
#1349000000
b10110110 9
1!
15
#1352000000
1C
b110110110110 6
b110110110110 B
b110110110110 P
b110110110110 ^
17
0!
05
#1353000000
0$
0G
0_
b10110111 9
10
#1360000000
1@
11
00
#1362000000
1#
0C
1F
1V
b110110110110 J
b110110110110 T
1N
b10111000 9
1!
15
#1365000000
b0 6
b0 B
b0 P
b0 ^
07
0!
05
#1370000000
1$
b110110110110 %
b110110110110 K
1?
0@
1G
0M
0c
1Y
b10111001 9
10
#1375000000
0j
b10111010 9
1!
15
#1377000000
0?
01
00
#1378000000
0!
05
#1387000000
0$
0H
1Q
b10111011 9
10
#1388000000
0#
0E
0`
b10111100 9
1!
15
#1391000000
1D
1?
11
b10000011000 6
b10000011000 B
b10000011000 P
b10000011000 ^
17
0!
05
#1394000000
00
#1401000000
1#
0D
1E
0N
1d
b10000011000 I
b10000011000 b
b10111101 9
1!
15
#1404000000
1$
b10000011000 %
b10000011000 K
0?
1@
1H
1M
1g
1U
b10111110 9
10
b0 6
b0 B
b0 P
b0 ^
07
0!
05
#1411000000
0@
01
00
#1414000000
1\
b10111111 9
1!
15
#1417000000
0!
05
#1421000000
0$
0G
1_
b11000000 9
10
#1427000000
0#
0F
1R
b11000001 9
1!
15
#1428000000
1@
11
00
#1430000000
0!
05
#1438000000
1$
b110110110110 %
b110110110110 K
1?
0@
1G
0M
1c
b11000010 9
10
#1440000000
1j
b11000011 9
1!
15
#1443000000
1C
0?
01
b110100101110 6
b110100101110 B
b110100101110 P
b110100101110 ^
17
0!
05
#1445000000
00
#1453000000
1D
0C
0E
1F
b110100101110 %
b110100101110 K
1N
1`
0V
b110100101110 J
b110100101110 T
b11000100 9
1!
15
#1455000000
0Y
b11000101 9
10
#1456000000
b110111001010 6
b110111001010 B
b110111001010 P
b110111001010 ^
0!
05
#1462000000
00
#1466000000
1#
0D
1E
0d
b110111001010 I
b110111001010 b
0N
b11000110 9
1!
15
#1469000000
b0 6
b0 B
b0 P
b0 ^
07
0!
05
#1472000000
0$
0H
0g
0Q
b11000111 9
10
#1479000000
b11001000 9
1!
15
1?
11
00
#1482000000
0!
05
#1489000000
0$
1H
0G
b110111001010 %
b110111001010 K
0?
1@
0U
0_
1M
b11001001 9
10
#1492000000
0\
b11001010 9
1!
15
#1495000000
0!
05
#1496000000
00
#1505000000
0#
0F
0R
b11001011 9
1!
15
#1506000000
1$
b110100101110 %
b110100101110 K
1?
0@
1G
0M
0c
b11001100 9
10
#1508000000
0!
05
#1513000000
0?
01
00
#1518000000
0j
b11001101 9
1!
15
#1521000000
0!
05
#1523000000
b11001110 9
10
#1530000000
00
#1531000000
0E
0`
b11001111 9
1!
15
#1534000000
1C
b10101111010 6
b10101111010 B
b10101111010 P
b10101111010 ^
17
0!
05
#1540000000
b11010000 9
10
#1544000000
0C
1D
1F
b10101111010 %
b10101111010 K
1V
b10101111010 J
b10101111010 T
1N
b11010001 9
1!
15
#1547000000
00
b1000111100111 6
b1000111100111 B
b1000111100111 P
b1000111100111 ^
0!
05
#1557000000
1#
0D
1E
1Y
0N
1d
b1000111100111 I
b1000111100111 b
10
b11010011 9
1!
15
#1560000000
b0 6
b0 B
b0 P
b0 ^
07
0!
05
#1564000000
00
#1570000000
b11010100 9
1!
15
#1573000000
0!
05
#1574000000
0$
0H
1g
1Q
b11010101 9
10
#1581000000
1?
11
00
#1583000000
b11010110 9
1!
15
#1586000000
0!
05
#1591000000
0$
1H
0G
b1000111100111 %
b1000111100111 K
0?
1@
1U
1_
1M
b11010111 9
10
#1596000000
1\
b11011000 9
1!
15
#1598000000
00
#1599000000
0!
05
#1608000000
1$
b10101111010 %
b10101111010 K
1?
0@
1G
0M
1c
b11011001 9
10
#1609000000
0#
0F
1j
1R
b11011010 9
1!
15
#1612000000
0?
01
0!
05
#1615000000
00
#1622000000
0E
1`
b11011011 9
1!
15
#1625000000
b11011100 9
10
0!
05
#1632000000
00
#1635000000
b11011101 9
1!
15
#1638000000
0!
05
#1642000000
b11011110 9
10
#1648000000
b11011111 9
1!
15
#1649000000
00
#1651000000
0!
05
#1659000000
b11100000 9
10
#1661000000
b11100001 9
1!
15
#1664000000
0!
05
#1666000000
00
#1674000000
b11100010 9
1!
15
#1676000000
b11100011 9
10
#1677000000
0!
05
#1683000000
00
#1687000000
b11100100 9
1!
15
#1690000000
1C
b1001000010001 6
b1001000010001 B
b1001000010001 P
b1001000010001 ^
17
0!
05
#1693000000
b11100101 9
10
#1700000000
0C
1D
1F
b1001000010001 %
b1001000010001 K
0V
b1001000010001 J
b1001000010001 T
1N
b11100110 9
1!
15
00
#1703000000
b110000011101 6
b110000011101 B
b110000011101 P
b110000011101 ^
0!
05
#1710000000
0Y
b11100111 9
10
#1713000000
1#
0D
1E
0N
0d
b110000011101 I
b110000011101 b
b11101000 9
1!
15
#1716000000
b0 6
b0 B
b0 P
b0 ^
07
0!
05
#1717000000
00
#1726000000
b11101001 9
1!
15
#1727000000
0$
0H
0Q
0g
b11101010 9
10
#1729000000
0!
05
#1734000000
1?
11
00
#1739000000
b11101011 9
1!
15
#1742000000
0!
05
#1744000000
b110000011101 %
b110000011101 K
0?
1@
0G
1H
1M
0_
0U
b11101100 9
10
#1751000000
00
#1752000000
0\
b11101101 9
1!
15
#1755000000
0!
05
#1761000000
1$
1G
b1001000010001 %
b1001000010001 K
1?
0@
0c
0M
b11101110 9
10
#1765000000
0#
0F
0j
0R
b11101111 9
1!
15
#1768000000
00
0?
01
0!
05
#1778000000
0E
0`
10
b11110001 9
1!
15
#1781000000
0!
05
#1785000000
00
#1791000000
b11110010 9
1!
15
#1794000000
1C
b1000010011011 6
b1000010011011 B
b1000010011011 P
b1000010011011 ^
17
0!
05
#1795000000
b11110011 9
10
#1802000000
00
#1804000000
0C
1D
1F
b1000010011011 %
b1000010011011 K
1V
b1000010011011 J
b1000010011011 T
1N
b11110100 9
1!
15
#1807000000
b100001010110 6
b100001010110 B
b100001010110 P
b100001010110 ^
0!
05
#1812000000
1Y
b11110101 9
10
#1817000000
1#
0D
1E
0N
1d
b100001010110 I
b100001010110 b
b11110110 9
1!
15
#1819000000
b0 6
b0 B
b0 P
b0 ^
07
00
#1820000000
0!
05
#1829000000
0$
0H
1Q
1g
b11110111 9
10
#1830000000
b11111000 9
1!
15
#1833000000
1?
11
0!
05
#1836000000
00
#1843000000
b11111001 9
1!
15
#1846000000
b100001010110 %
b100001010110 K
0?
1@
0G
1H
1M
1_
1U
b11111010 9
10
0!
05
#1853000000
00
#1856000000
1\
b11111011 9
1!
15
#1859000000
0!
05
#1863000000
1$
1G
b1000010011011 %
b1000010011011 K
1?
0@
1c
0M
b11111100 9
10
#1869000000
0#
0F
1j
1R
b11111101 9
1!
15
#1870000000
0?
01
00
#1872000000
0!
05
#1880000000
b11111110 9
10
#1882000000
0E
1`
b11111111 9
1!
15
#1885000000
1C
b10001000001 6
b10001000001 B
b10001000001 P
b10001000001 ^
17
0!
05
#1887000000
00
#1895000000
1D
0C
1F
b10001000001 %
b10001000001 K
1N
0V
b10001000001 J
b10001000001 T
b100000000 9
1!
15
#1897000000
0Y
b100000001 9
10
#1898000000
b110110000111 6
b110110000111 B
b110110000111 P
b110110000111 ^
0!
05
#1904000000
00
#1908000000
1#
0D
1E
0d
b110110000111 I
b110110000111 b
0N
b100000010 9
1!
15
#1911000000
b0 6
b0 B
b0 P
b0 ^
07
0!
05
#1914000000
0$
0H
0g
0Q
b100000011 9
10
#1921000000
b100000100 9
1!
15
1?
11
00
#1924000000
0!
05
#1931000000
0$
1H
0G
b110110000111 %
b110110000111 K
0?
1@
0U
0_
1M
b100000101 9
10
#1934000000
0\
b100000110 9
1!
15
#1937000000
0!
05
#1938000000
00
#1947000000
0#
0F
0R
b100000111 9
1!
15
#1948000000
1$
b10001000001 %
b10001000001 K
1?
0@
1G
0M
0c
b100001000 9
10
#1950000000
0!
05
#1955000000
0?
01
00
#1960000000
0j
b100001001 9
1!
15
#1963000000
1C
b11000100011 6
b11000100011 B
b11000100011 P
b11000100011 ^
17
0!
05
#1965000000
b100001010 9
10
#1972000000
00
#1973000000
1D
0C
0E
1F
b11000100011 %
b11000100011 K
1N
0`
1V
b11000100011 J
b11000100011 T
b100001011 9
1!
15
#1976000000
b11111001101 6
b11111001101 B
b11111001101 P
b11111001101 ^
0!
05
#1982000000
1Y
b100001100 9
10
#1986000000
1#
0D
1E
1d
b11111001101 I
b11111001101 b
0N
b100001101 9
1!
15
#1989000000
00
b0 6
b0 B
b0 P
b0 ^
07
0!
05
#1999000000
0$
0H
1Q
1g
10
b100001111 9
1!
15
#2002000000
0!
05
#2006000000
1?
11
00
#2012000000
b100010000 9
1!
15
#2015000000
0!
05
#2016000000
b11111001101 %
b11111001101 K
0?
1@
0G
1H
1M
1_
1U
b100010001 9
10
#2023000000
00
#2025000000
1\
b100010010 9
1!
15
#2028000000
0!
05
#2033000000
1$
1G
b11000100011 %
b11000100011 K
1?
0@
1c
0M
b100010011 9
10
#2038000000
0#
0F
1R
1j
b100010100 9
1!
15
#2040000000
1C
0?
01
b111010111010 6
b111010111010 B
b111010111010 P
b111010111010 ^
17
00
#2041000000
0!
05
#2050000000
b100010101 9
10
#2051000000
1D
0C
0E
1F
b111010111010 %
b111010111010 K
1N
1`
0V
b111010111010 J
b111010111010 T
b100010110 9
1!
15
#2054000000
b11111111101 6
b11111111101 B
b11111111101 P
b11111111101 ^
0!
05
#2057000000
00
#2064000000
1#
0D
1E
0d
b11111111101 I
b11111111101 b
0N
b100010111 9
1!
15
#2067000000
0Y
0g
b100011000 9
10
b0 6
b0 B
b0 P
b0 ^
07
0!
05
#2074000000
00
#2077000000
b100011001 9
1!
15
#2080000000
0!
05
#2084000000
0$
0G
0H
0_
0Q
b100011010 9
10
#2090000000
b100011011 9
1!
15
