examples/vcd_python3_usage/demo.vcd
$date
	Thu Mar 16 20:39:00 2023
$end
$version
	Icarus Verilog
$end
$timescale
	1ps
$end
$scope module tb $end
$var wire 1 ! pready $end
$var wire 1 " vldout $end
$var wire 8 # result [7:0] $end
$var wire 32 $ prdata [31:0] $end
$var reg 32 % ID [31:0] $end
$var reg 32 & Index [31:0] $end
$var reg 1 ' clk $end
$var reg 32 ( marker [31:0] $end
$var reg 32 ) marker0 [31:0] $end
$var reg 32 * marker1 [31:0] $end
$var reg 32 + marker2 [31:0] $end
$var reg 32 , marker3 [31:0] $end
$var reg 32 - paddr [31:0] $end
$var reg 1 . penable $end
$var reg 1 / psel $end
$var reg 32 0 pwdata [31:0] $end
$var reg 1 1 pwrite $end
$var reg 1 2 rst_n $end
$var reg 8 3 sample [7:0] $end
$var reg 1024 4 testname [1023:0] $end
$var reg 1 5 vldin $end
$var integer 32 6 corrects [31:0] $end
$var integer 32 7 cycles [31:0] $end
$var integer 32 8 errors [31:0] $end
$var integer 32 9 panics [31:0] $end
$var integer 32 : wrongs [31:0] $end
$scope module dut $end
$var wire 1 ' clk $end
$var wire 32 ; paddr [31:0] $end
$var wire 1 . penable $end
$var wire 1 ! pready $end
$var wire 1 / psel $end
$var wire 32 < pwdata [31:0] $end
$var wire 1 1 pwrite $end
$var wire 1 2 rst_n $end
$var wire 8 = sample [7:0] $end
$var wire 1 5 vldin $end
$var wire 1 " vldout $end
$var wire 4 > scalefactor [3:0] $end
$var wire 1 ? saturation $end
$var wire 8 @ result [7:0] $end
$var wire 32 A prdata [31:0] $end
$var wire 1 B enable $end
$var wire 64 C coeffs [63:0] $end
$var reg 32 D bads [31:0] $end
$var reg 32 E goods [31:0] $end
$scope module fir $end
$var wire 1 ' clk $end
$var wire 8 F sample [7:0] $end
$var wire 1 5 vldin $end
$var wire 24 G tmp [23:0] $end
$var wire 4 H scalefactor [3:0] $end
$var wire 1 ? saturation $end
$var wire 64 I coeffs [63:0] $end
$var reg 192 J mid1 [191:0] $end
$var reg 96 K mid2 [95:0] $end
$var reg 24 L midresult [23:0] $end
$var reg 8 M result [7:0] $end
$var reg 64 N samples [63:0] $end
$var reg 1 O vld0 $end
$var reg 1 P vld1 $end
$var reg 1 Q vld2 $end
$var reg 1 R vld3 $end
$var reg 1 " vldout $end
$var integer 32 S ii [31:0] $end
$var integer 32 T jj [31:0] $end
$upscope $end
$scope module rgf $end
$var wire 1024 U ZEROES [1023:0] $end
$var wire 32 V bads [31:0] $end
$var wire 32 W goods [31:0] $end
$var wire 1 X i_pread $end
$var wire 1 Y i_pwrite $end
$var wire 32 Z paddr [31:0] $end
$var wire 1 ' pclk $end
$var wire 1 . penable $end
$var wire 1 ! pready $end
$var wire 1 2 presetn $end
$var wire 1 / psel $end
$var wire 1 [ pslverr $end
$var wire 4 \ pstrb [3:0] $end
$var wire 32 ] pwdata [31:0] $end
$var wire 1 1 pwrite $end
$var wire 4 ^ scalefactor [3:0] $end
$var wire 32 _ prdata_wire [31:0] $end
$var wire 32 ` prdata [31:0] $end
$var wire 32 a last_wdata [31:0] $end
$var wire 1 B enable $end
$var wire 64 b coeffs [63:0] $end
$scope module rgf $end
$var wire 32 c bads [31:0] $end
$var wire 32 d goods [31:0] $end
$var wire 32 e mpaddr0 [31:0] $end
$var wire 32 f paddr [31:0] $end
$var wire 1 ' pclk $end
$var wire 1 . penable $end
$var wire 32 g prdata [31:0] $end
$var wire 1 X pread $end
$var wire 1 h pready $end
$var wire 1 2 presetn $end
$var wire 4 i pstrb [3:0] $end
$var wire 32 j pwdata [31:0] $end
$var wire 1 Y pwrite $end
$var wire 32 k wdata [31:0] $end
$var wire 32 l prdata_wire [31:0] $end
$var wire 32 m mpaddr [31:0] $end
$var wire 32 n mask [31:0] $end
$var reg 64 o coeffs [63:0] $end
$var reg 1 B enable $end
$var reg 32 p last_wdata [31:0] $end
$var reg 32 q prdata_reg [31:0] $end
$var reg 4 r scalefactor [3:0] $end
$upscope $end
$upscope $end
$upscope $end
$upscope $end
$enddefinitions $end
#0
$dumpvars
b0 r
bx q
bx p
b0 o
b11111111111111111111111111111111 n
b0 m
b0 l
b0 k
b0 j
b1111 i
1h
bx g
b0 f
b0 e
b0 d
b0 c
b0 b
bx a
bx `
b0 _
b0 ^
b0 ]
b1111 \
0[
b0 Z
0Y
0X
b0 W
b0 V
b0 U
bx T
bx S
xR
xQ
xP
xO
bx N
bx M
bx L
bx K
bx J
b0 I
b0 H
bx G
b0 F
b0 E
b0 D
b0 C
0B
bx A
bx @
x?
b0 >
b0 =
b0 <
b0 ;
b0 :
b0 9
b0 8
b0 7
b0 6
05
b11101000110010101110011011101000011000000101110011100110110010101110001 4
b0 3
02
01
b0 0
0/
0.
b0 -
b0 ,
b0 +
b0 *
b0 )
b0 (
0'
b0 &
b0 %
bx $
bx #
x"
1!
$end
#10000
0O
b0 $
b0 A
b0 `
b0 g
b0 q
1'
#11000
b1 7
#20000
0'
#30000
0P
1'
#31000
b10 7
#40000
0'
#50000
0Q
1'
#51000
b11 7
#60000
0'
#70000
0R
1'
#71000
b100 7
#80000
0'
#90000
0"
1'
#91000
b101 7
#100000
0'
12
#110000
1'
#111000
b110 7
#120000
0'
#130000
1'
#131000
b111 7
#140000
0'
#150000
1'
#151000
b1000 7
#160000
0'
#170000
1'
#171000
b1001 7
#180000
0'
#190000
1'
#191000
b1010 7
#200000
0'
#210000
1'
#211000
b1011 7
#220000
0'
#230000
1'
#231000
b1100 7
#240000
0'
#250000
1'
#251000
b1101 7
#260000
0'
#270000
1'
#271000
b1110 7
#280000
0'
#290000
1'
#291000
b1111 7
#300000
0'
#310000
1'
#311000
b10000 7
#320000
0'
#330000
1'
#331000
b10001 7
#340000
0'
#350000
1'
#351000
b10010 7
#360000
0'
#370000
1'
#371000
b10011 7
#380000
0'
#390000
1'
#391000
b10100 7
#400000
0'
#410000
1'
#411000
b10101 7
#420000
0'
#430000
1'
#431000
b10110 7
#440000
0'
#450000
1'
#451000
b10111 7
#460000
0'
#470000
1'
#471000
b11000 7
#480000
0'
#490000
1'
#491000
b11001 7
#500000
0'
#510000
1'
#511000
b11010 7
#520000
0'
#530000
1'
#531000
b11011 7
#540000
0'
#550000
1'
#551000
b11100 7
#560000
0'
#570000
1'
#571000
b11101 7
#580000
0'
#590000
1'
#591000
b11110 7
#600000
0'
#610000
1'
#611000
b11111 7
#620000
0'
#630000
1'
#631000
b100000 7
#640000
0'
#650000
1'
#651000
b100001 7
#660000
0'
#670000
1'
#671000
b100010 7
#680000
0'
#690000
1'
#691000
b100011 7
#700000
0'
#710000
1'
#711000
b100100 7
#720000
0'
#730000
1'
#731000
b100101 7
#740000
0'
#750000
1'
#751000
b100110 7
#760000
0'
#770000
1'
#771000
b100111 7
#780000
0'
#790000
1'
#791000
b101000 7
#800000
0'
#810000
1'
#811000
b101001 7
#820000
0'
#830000
1'
#831000
b101010 7
#840000
0'
#850000
1'
#851000
b101011 7
#860000
0'
#870000
1'
#871000
b101100 7
#880000
0'
#890000
1'
#891000
b101101 7
#900000
0'
#910000
1'
#911000
b101110 7
#920000
0'
#930000
1'
#931000
b101111 7
#940000
0'
#950000
1'
#951000
b110000 7
#960000
0'
#970000
1'
#971000
b110001 7
#980000
0'
#990000
1'
#991000
b110010 7
#1000000
0'
#1010000
1'
#1011000
b110011 7
#1020000
0'
#1030000
1'
#1031000
b110100 7
#1040000
0'
#1050000
1'
#1051000
b100 e
b1 *
11
b101 k
b101 0
b101 <
b101 ]
b101 j
b100 -
b100 ;
b100 Z
b100 f
1/
b1 8
b110101 7
#1060000
0'
#1070000
1'
#1071000
b100 m
1Y
1.
b10 8
b110110 7
#1080000
0'
#1090000
b101 _
b101 l
b101 a
b101 p
b0xxxxxxxxxxxxxxxxxxx G
b101 >
b101 H
b101 ^
b101 r
1'
#1091000
b0 _
b0 l
b0 m
0Y
b0 e
0.
01
b0 k
b0 0
b0 <
b0 ]
b0 j
b0 -
b0 ;
b0 Z
b0 f
0/
b100 8
b110111 7
#1100000
0'
#1110000
1'
#1111000
b1000 e
11
b10001001000100001001000010101 k
b10001001000100001001000010101 0
b10001001000100001001000010101 <
b10001001000100001001000010101 ]
b10001001000100001001000010101 j
b1000 -
b1000 ;
b1000 Z
b1000 f
1/
b101 8
b111000 7
#1120000
0'
#1130000
1'
#1131000
b0 _
b0 l
b1000 m
1Y
1.
b110 8
b111001 7
#1140000
0'
#1150000
b10101 _
b10101 l
b10001001000100001001000010101 a
b10001001000100001001000010101 p
b10101 C
b10101 I
b10101 b
b10101 o
1'
#1151000
b0 _
b0 l
b0 m
0Y
b0 e
0.
01
b0 k
b0 0
b0 <
b0 ]
b0 j
b0 -
b0 ;
b0 Z
b0 f
0/
b1000 8
b111010 7
#1160000
0'
#1170000
1'
#1171000
b1100 e
11
b101000001100000011100001000 k
b101000001100000011100001000 0
b101000001100000011100001000 <
b101000001100000011100001000 ]
b101000001100000011100001000 j
b1100 -
b1100 ;
b1100 Z
b1100 f
1/
b1001 8
b111011 7
#1180000
0'
#1190000
1'
#1191000
b0 _
b0 l
b1100 m
1Y
1.
b1010 8
b111100 7
#1200000
0'
#1210000
b1000 _
b1000 l
b101000001100000011100001000 a
b101000001100000011100001000 p
b100000010101 C
b100000010101 I
b100000010101 b
b100000010101 o
1'
#1211000
b0 _
b0 l
b0 m
0Y
b0 e
0.
01
b0 k
b0 0
b0 <
b0 ]
b0 j
b0 -
b0 ;
b0 Z
b0 f
0/
b1100 8
b111101 7
#1220000
0'
#1230000
1'
#1231000
b10000 e
11
b101000001100000011100001000 k
b101000001100000011100001000 0
b101000001100000011100001000 <
b101000001100000011100001000 ]
b101000001100000011100001000 j
b10000 -
b10000 ;
b10000 Z
b10000 f
1/
b1101 8
b111110 7
#1240000
0'
#1250000
1'
#1251000
b0 _
b0 l
b10000 m
1Y
1.
b1110 8
15
b11001101 3
b11001101 =
b11001101 F
b111111 7
#1260000
0'
#1270000
b1000 _
b1000 l
1O
bx11001101 N
b10000000100000010101 C
b10000000100000010101 I
b10000000100000010101 b
b10000000100000010101 o
b0 S
1'
#1271000
b0 _
b0 l
b0 m
0Y
b0 e
0.
01
b0 k
b0 0
b0 <
b0 ]
b0 j
b0 -
b0 ;
b0 Z
b0 f
0/
b10000 8
b0 3
b0 =
b0 F
05
b1000000 7
#1280000
0'
#1290000
0O
1P
bx000000000001000011010001 J
b1000 T
1'
#1291000
b10100 e
11
b10101000101000001001100010010 k
b10101000101000001001100010010 0
b10101000101000001001100010010 <
b10101000101000001001100010010 ]
b10101000101000001001100010010 j
b10100 -
b10100 ;
b10100 Z
b10100 f
1/
b10001 8
15
b1000001 7
#1300000
0'
#1310000
1Q
0P
1O
bx1100110100000000 N
b0 S
1'
#1311000
b0 _
b0 l
b10100 m
1Y
1.
b10010 8
b1001110 3
b1001110 =
b1001110 F
b1000010 7
#1320000
0'
#1330000
b10010 _
b10010 l
bx110011010000000001001110 N
1P
bx000000000000011001101000000000000000000000000000 J
0Q
1R
b10101000101000001001100010010 a
b10101000101000001001100010010 p
b10010000010000000100000010101 C
b10010000010000000100000010101 I
b10010000010000000100000010101 b
b10010000010000000100000010101 o
b0 S
b1000 T
1'
#1331000
b0 _
b0 l
b0 m
0Y
b0 e
0.
01
b0 k
b0 0
b0 <
b0 ]
b0 j
b0 -
b0 ;
b0 Z
b0 f
0/
b10100 8
b0 3
b0 =
b0 F
05
b1000011 7
#1340000
0'
#1350000
1"
0R
1Q
bx000000000000011001101000 K
bx000000000000011001101000000000000000000000000000000000000000011001100110 J
0O
b1000 T
1'
#1351000
b1000100 7
#1360000
0'
#1370000
0P
bx000000000000011001100110 K
1R
0"
1'
#1371000
b1000101 7
#1380000
0'
#1390000
1"
0Q
1'
#1391000
b1000110 7
#1400000
0'
#1410000
0R
1'
#1411000
15
b10101101 3
b10101101 =
b10101101 F
b1000111 7
#1420000
0'
#1430000
0"
1O
bx11001101000000000100111010101101 N
b0 S
1'
#1431000
b0 3
b0 =
b0 F
05
b1001000 7
#1440000
0'
#1450000
0O
1P
bx000000000000111001101010000000000000000000000000000000000000001001110000000000000000111000110001 J
b1000 T
1'
#1451000
b1001001 7
#1460000
0'
#1470000
1Q
bx000000000000111001101010000000000001000010100001 K
0P
1'
#1471000
b1001010 7
#1480000
0'
#1490000
0Q
1R
1'
#1491000
15
b110100 3
b110100 =
b110100 F
b1001011 7
#1500000
0'
#1510000
1"
0R
1O
bx1100110100000000010011101010110100110100 N
b0 S
1'
#1511000
b0 3
b0 =
b0 F
05
b1001100 7
#1520000
0'
#1530000
0O
1P
bx000000000000000000000000000000000000000000000000000000000000001001110000000000000000010101101000000000000000010001000100 J
0"
b1000 T
1'
#1531000
b1001101 7
#1540000
0'
#1550000
1Q
bx000000000000001001110000000000000000100110101100 K
0P
1'
#1551000
b1001110 7
#1560000
0'
#1570000
0Q
1R
1'
#1571000
b1001111 7
#1580000
0'
#1590000
1"
0R
1'
#1591000
b1010000 7
#1600000
0'
#1610000
0"
1'
#1611000
b1010001 7
#1620000
0'
#1630000
1'
#1631000
15
b10100100 3
b10100100 =
b10100100 F
b1010010 7
#1640000
0'
#1650000
1O
bx110011010000000001001110101011010011010010100100 N
b0 S
1'
#1651000
b0 3
b0 =
b0 F
05
b1010011 7
#1660000
0'
#1670000
1P
bx000000000000000000000000000000000000000000000000000000000000010101111100000000000000010101101000000000000000000110100000000000000000110101110100 J
0O
b1000 T
1'
#1671000
b1010100 7
#1680000
0'
#1690000
0P
1Q
bx000000000000000000000000000000000000101011100100000000000000111100010100 K
1'
#1691000
b1010101 7
#1700000
0'
#1710000
1R
0Q
1'
#1711000
b1010110 7
#1720000
0'
#1730000
0R
1"
1'
#1731000
b1010111 7
#1740000
0'
#1750000
0"
1'
#1751000
b1011000 7
#1760000
0'
#1770000
1'
#1771000
b1011001 7
#1780000
0'
#1790000
1'
#1791000
b1011010 7
#1800000
0'
#1810000
1'
#1811000
b1011011 7
#1820000
0'
#1830000
1'
#1831000
b1011100 7
#1840000
0'
#1850000
1'
#1851000
b1011101 7
#1860000
0'
#1870000
1'
#1871000
b1011110 7
#1880000
0'
#1890000
1'
#1891000
b1011111 7
#1900000
0'
#1910000
1'
#1911000
b1100000 7
#1920000
0'
#1930000
1'
#1931000
b1100001 7
#1940000
0'
#1950000
1'
#1951000
15
b10011101 3
b10011101 =
b10011101 F
b1100010 7
#1960000
0'
#1970000
1O
bx11001101000000000100111010101101001101001010010010011101 N
b0 S
1'
#1971000
b0 3
b0 =
b0 F
05
b1100011 7
#1980000
0'
#1990000
1P
bx000000000000000000000000000000000000000000000000000000000000000000000000000000000000110000101010000000000000000110100000000000000000010100100000000000000000110011100001 J
0O
b1000 T
1'
#1991000
b1100100 7
#2000000
0'
#2010000
0P
1Q
bx000000000000000000000000000000000000110111001010000000000001001000000001 K
1'
#2011000
b1100101 7
#2020000
0'
#2030000
1R
0Q
1'
#2031000
15
b10010 3
b10010 =
b10010 F
b1100110 7
#2040000
0'
#2050000
1O
b1100110100000000010011101010110100110100101001001001110100010010 N
0R
1"
b0 S
1'
#2051000
b0 3
b0 =
b0 F
05
b1100111 7
#2060000
0'
#2070000
0"
1P
b1110101000000000000000010100100000000000000000010011101000000000000000000101111010 J
0O
b1000 T
1'
#2071000
b1101000 7
#2080000
0'
#2090000
0P
1Q
b100011001000000000000000011001100010 K
1'
#2091000
b1101001 7
#2100000
0'
#2110000
0?
1R
b1111001 G
b111100101010 L
0Q
1'
#2111000
15
b1001001 3
b1001001 =
b1001001 F
b1101010 7
#2120000
0'
#2130000
1O
b1001110101011010011010010100100100111010001001001001001 N
0R
1"
b1111001 #
b1111001 @
b1111001 M
b0 S
1'
#2131000
b0 3
b0 =
b0 F
05
b1101011 7
#2132000
b1 6
#2140000
0'
#2150000
0"
1P
b101110001000000000000000010011101000000000000000000010010000000000000000010111111101 J
0O
b1000 T
1'
#2151000
b1101100 7
#2160000
0'
#2170000
0P
1Q
b1000001110000000000000000011010001101 K
1'
#2171000
b1101101 7
#2180000
0'
#2190000
1R
b10110111 G
b1011011111101 L
0Q
1'
#2191000
b1101110 7
#2200000
0'
#2210000
0R
1"
b10110111 #
b10110111 @
b10110111 M
1'
#2211000
b1101111 7
#2212000
b10 6
#2220000
0'
#2230000
0"
1'
#2231000
b1110000 7
#2240000
0'
#2250000
1'
#2251000
15
b1011001 3
b1011001 =
b1011001 F
b1110001 7
#2260000
0'
#2270000
1O
b100111010101101001101001010010010011101000100100100100101011001 N
b0 S
1'
#2271000
b0 3
b0 =
b0 F
05
b1110010 7
#2280000
0'
#2290000
0O
1P
b101100001010000000000000000010010000000000000000001001001000000000000000011101001101 J
b1000 T
1'
#2291000
15
b1010 3
b1010 =
b1010 F
b1110011 7
#2300000
0'
#2310000
1Q
b101110011010000000000000100110010101 K
0P
1O
b1010110100110100101001001001110100010010010010010101100100001010 N
b0 S
1'
#2311000
b0 3
b0 =
b0 F
05
b1110100 7
#2320000
0'
#2330000
0O
1P
b101000100000000000000001001001000000000000000001011001000000000000000000011010010 J
0Q
1R
b10101001 G
b1010100101111 L
b1000 T
1'
#2331000
15
b11000000 3
b11000000 =
b11000000 F
b1110101 7
#2340000
0'
#2350000
1"
b10101001 #
b10101001 @
b10101001 M
0R
1Q
b1110001100000000000000001110011010 K
0P
1O
b11010010100100100111010001001001001001010110010000101011000000 N
b0 S
1'
#2351000
b10010001 3
b10010001 =
b10010001 F
b1110110 7
#2352000
b11 6
#2360000
0'
#2370000
b1010010010011101000100100100100101011001000010101100000010010001 N
1P
b10100100010000000000000001011001000000000000000000001010000000000000000111111000000 J
0Q
1R
b111001 G
b11100100110 L
0"
b0 S
b1000 T
1'
#2371000
b1100001 3
b1100001 =
b1100001 F
b1110111 7
#2380000
0'
#2390000
1"
b111001 #
b111001 @
b111001 M
0R
1Q
b11111101010000000000001000000010000 K
b11001000010000000000000000001010000000000000000011000000000000000000000101111100101 J
b1001110100010010010010010101100100001010110000001001000101100001 N
b1000 T
b0 S
1'
#2391000
b0 3
b0 =
b0 F
05
b1111000 7
#2392000
b100 6
#2400000
0'
#2410000
0O
b10110100000000000000011000000000000000000000010010001000000000000000011111110101 J
b11010010010000000000001000111100101 K
1R
b10111111 G
b1011111111010 L
0"
b1000 T
1'
#2411000
b1111001 7
#2420000
0'
#2430000
1"
b10111111 #
b10111111 @
b10111111 M
b11000011 G
b1100001110111 L
b11010110100000000000000110001111101 K
0P
1'
#2431000
15
b10000001 3
b10000001 =
b10000001 F
b1111010 7
#2432000
b101 6
#2440000
0'
#2450000
1O
b1001001001001010110010000101011000000100100010110000110000001 N
0Q
b10011001 G
b1001100110001 L
b11000011 #
b11000011 @
b11000011 M
b0 S
1'
#2451000
b11110010 3
b11110010 =
b11110010 F
b1111011 7
#2452000
b110 6
#2460000
0'
#2470000
b10011001 #
b10011001 @
b10011001 M
0R
1P
b110110000000000000000000010010001000000000000000001100001000000000000000101010010101 J
b100100101011001000010101100000010010001011000011000000111110010 N
b1000 T
b0 S
1'
#2471000
b10110100 3
b10110100 =
b10110100 F
b1111100 7
#2472000
b111 6
#2480000
0'
#2490000
b101100100001010110000001001000101100001100000011111001010110100 N
b101000110010000000000000001100001000000000000000010000001000000000000001001111011010 J
1Q
b1001000001000000000000000110110011101 K
0"
b0 S
b1000 T
1'
#2491000
b0 3
b0 =
b0 F
05
b1111101 7
#2500000
0'
#2510000
1R
b11111101 G
b1111110100101 L
b110100111010000000000001011111100010 K
b11011010010000000000000010000001000000000000000011110010000000000000000111011000100 J
0O
b1000 T
1'
#2511000
15
b11101001 3
b11101001 =
b11101001 F
b1111110 7
#2520000
0'
#2530000
1?
1O
b101011000000100100010110000110000001111100101011010011101001 N
0P
b101011011010000000000001011001010100 K
b100101000 G
b10010100011100 L
1"
b11111101 #
b11111101 @
b11111101 M
b0 S
1'
#2531000
b0 3
b0 =
b0 F
05
b1111111 7
#2532000
b1000 6
#2540000
0'
#2550000
b11111111 #
b11111111 @
b11111111 M
b100001001 G
b10000100101110 L
0Q
1P
b100100010010000000000000011110010000000000000000010110100000000000000001001100011101 J
0O
b1000 T
1'
#2551000
b10000000 7
#2552000
b1001 6
#2560000
0'
#2570000
0P
1Q
b1000010100010000000000001100010111101 K
0R
1'
#2571000
b10000001 7
#2572000
b1010 6
#2580000
0'
#2590000
0"
1R
b101001010 G
b10100101011111 L
0Q
1'
#2591000
b10000010 7
#2600000
0'
#2610000
0R
1"
1'
#2611000
b10000011 7
#2612000
b1011 6
#2620000
0'
#2630000
0"
1'
#2631000
b10000100 7
#2640000
0'
#2650000
1'
#2651000
b10000101 7
#2660000
0'
#2670000
1'
#2671000
b10000110 7
#2680000
0'
#2690000
1'
#2691000
b10000111 7
#2700000
0'
#2710000
1'
#2711000
b10001000 7
#2720000
0'
#2730000
1'
#2731000
15
b10101110 3
b10101110 =
b10101110 F
b10001001 7
#2740000
0'
#2750000
1O
b1100000010010001011000011000000111110010101101001110100110101110 N
b0 S
1'
#2751000
b1011110 3
b1011110 =
b1011110 F
b10001010 7
#2760000
0'
#2770000
b1001000101100001100000011111001010110100111010011010111001011110 N
1P
b1000100000100000000000000010110100000000000000000011101001000000000000000111001000110 J
b0 S
b1000 T
1'
#2771000
b10100 3
b10100 =
b10100 F
b10001011 7
#2780000
0'
#2790000
1Q
b1011010100100000000000001010110001110 K
b110010101000000000000000011101001000000000000000010101110000000000000000011110110110 J
b110000110000001111100101011010011101001101011100101111000010100 N
b1000 T
b0 S
1'
#2791000
b0 3
b0 =
b0 F
05
b10001100 7
#2800000
0'
#2810000
0O
b1000001100010000000000000010101110000000000000000001011110000000000000000000110100100 J
b1001111110000000000000000110100100110 K
1R
b101100001 G
b10110000110010 L
b1000 T
1'
#2811000
b10001101 7
#2820000
0'
#2830000
1"
b100001000 G
b10000100010110 L
b1010111010010000000000000010010010100 K
0P
1'
#2831000
b10001110 7
#2832000
b1100 6
#2840000
0'
#2850000
0?
0Q
b11010011 G
b1101001100110 L
1'
#2851000
b10001111 7
#2852000
b1101 6
#2860000
0'
#2870000
b11010011 #
b11010011 @
b11010011 M
0R
1'
#2871000
b10010000 7
#2872000
b1110 6
#2880000
0'
#2890000
0"
1'
#2891000
b10010001 7
#2900000
0'
#2910000
1'
#2911000
b10010010 7
#2920000
0'
#2930000
1'
#2931000
b10010011 7
#2940000
0'
#2950000
1'
#2951000
b10010100 7
#2960000
0'
#2970000
1'
#2971000
b10010101 7
#2980000
0'
#2990000
1'
#2991000
15
b11010001 3
b11010001 =
b11010001 F
b10010110 7
#3000000
0'
#3010000
1O
b1000000111110010101101001110100110101110010111100001010011010001 N
b0 S
1'
#3011000
b10000011 3
b10000011 =
b10000011 F
b10010111 7
#3020000
0'
#3030000
1P
b110000111100000000000000001011110000000000000000000010100000000000000001000100100101 J
b1111001010110100111010011010111001011110000101001101000110000011 N
b1000 T
b0 S
1'
#3031000
b0 3
b0 =
b0 F
05
b10011000 7
#3040000
0'
#3050000
0O
b11010011100000000000000000010100000000000000000011010001000000000000000101010111111 J
1Q
b111100101100000000000001000111000101 K
b1000 T
1'
#3051000
15
b11110101 3
b11110101 =
b11110101 F
b10011001 7
#3060000
0'
#3070000
1?
1R
b100000111 G
b10000011110001 L
b11100111100000000000001000101000111 K
0P
1O
b1011010011101001101011100101111000010100110100011000001111110101 N
b0 S
1'
#3071000
b0 3
b0 =
b0 F
05
b10011010 7
#3080000
0'
#3090000
0?
0O
1P
b101101000000000000000011010001000000000000000010000011000000000000001010000011001 J
0Q
b11000100 G
b1100010000011 L
1"
b11111111 #
b11111111 @
b11111111 M
b1000 T
1'
#3091000
15
b11011100 3
b11011100 =
b11011100 F
b10011011 7
#3092000
b1111 6
#3100000
0'
#3110000
b11000100 #
b11000100 @
b11000100 M
0R
1Q
b11111110000000000000001100000110001 K
0P
1O
b1110100110101110010111100001010011010001100000111111010111011100 N
b0 S
1'
#3111000
b0 3
b0 =
b0 F
05
b10011100 7
#3112000
b10000 6
#3120000
0'
#3130000
1?
0O
1P
b111010110010000000000000010000011000000000000000011110101000000000000001001000001100 J
0Q
1R
b100000001 G
b10000000100001 L
0"
b1000 T
1'
#3131000
b10011101 7
#3140000
0'
#3150000
1"
b11111111 #
b11111111 @
b11111111 M
0R
1Q
b1001011001010000000000001100110110100 K
0P
1'
#3151000
b10011110 7
#3152000
b10001 6
#3160000
0'
#3170000
0Q
1R
b101100011 G
b10110001111110 L
0"
1'
#3171000
b10011111 7
#3180000
0'
#3190000
1"
0R
1'
#3191000
b10100000 7
#3192000
b10010 6
#3200000
0'
#3210000
0"
1'
#3211000
11
b1 k
b1 0
b1 <
b1 ]
b1 j
1/
b10101 8
15
b10111101 3
b10111101 =
b10111101 F
b10100001 7
#3220000
0'
#3230000
1O
b1010111001011110000101001101000110000011111101011101110010111101 N
b0 S
1'
#3231000
1Y
1.
b10110 8
b0 3
b0 =
b0 F
05
b10100010 7
#3240000
0'
#3250000
b1 _
b1 l
0O
1P
b100100110110000000000000011110101000000000000000011011100000000000000000111110000001 J
b1 a
b1 p
1B
b1000 T
1'
#3251000
0Y
0.
01
b0 k
b0 0
b0 <
b0 ]
b0 j
0/
b11000 8
15
b10110100 3
b10110100 =
b10110100 F
b10100011 7
#3260000
0'
#3270000
b1 $
b1 A
b1 `
b1 g
b1 q
1Q
b1000011011110000000000001011001100001 K
0P
1O
b101111000010100110100011000001111110101110111001011110110110100 N
b1 D
b1 V
b1 c
b0 S
1'
#3271000
b0 3
b0 =
b0 F
05
b10100100 7
#3280000
0'
#3290000
0O
1P
b1000100111010000000000000011011100000000000000000010111101000000000000000111011000100 J
0Q
1R
b100111001 G
b10011100111111 L
b10 D
b10 V
b10 c
b1000 T
1'
#3291000
15
b11100111 3
b11100111 =
b11100111 F
b10100101 7
#3300000
0'
#3310000
1"
0R
1Q
b1100000011010000000000001010010101100 K
0P
1O
b1010011010001100000111111010111011100101111011011010011100111 N
b11 D
b11 V
b11 c
b0 S
1'
#3311000
b0 3
b0 =
b0 F
05
b10100110 7
#3312000
b10011 6
#3320000
0'
#3330000
0O
1P
b111101111000000000000000010111101000000000000000010110100000000000000001001011110011 J
0Q
1R
b101100110 G
b10110011000110 L
0"
b100 D
b100 V
b100 c
b1000 T
1'
#3331000
b10100111 7
#3340000
0'
#3350000
1"
0R
1Q
b1010101100000000000000001100010010011 K
0P
b101 D
b101 V
b101 c
1'
#3351000
b10101000 7
#3352000
b10100 6
#3360000
0'
#3370000
0Q
1R
b101101111 G
b10110111110011 L
0"
b110 D
b110 V
b110 c
1'
#3371000
b10101001 7
#3380000
0'
#3390000
1"
0R
b111 D
b111 V
b111 c
1'
#3391000
15
b10010010 3
b10010010 =
b10010010 F
b10101010 7
#3392000
b10101 6
#3400000
0'
#3410000
1O
b1101000110000011111101011101110010111101101101001110011110010010 N
0"
b1000 D
b1000 V
b1000 c
b0 S
1'
#3411000
b0 3
b0 =
b0 F
05
b10101011 7
#3420000
0'
#3430000
1P
b110101001010000000000000010110100000000000000000011100111000000000000000101111111010 J
0O
b1001 D
b1001 V
b1001 c
b1000 T
1'
#3431000
15
b11100011 3
b11100011 =
b11100011 F
b10101100 7
#3440000
0'
#3450000
1O
b1000001111110101110111001011110110110100111001111001001011100011 N
0P
1Q
b1001011101010000000000001001100110010 K
b1010 D
b1010 V
b1010 c
b0 S
1'
#3451000
b0 3
b0 =
b0 F
05
b10101101 7
#3460000
0'
#3470000
1R
b100110000 G
b10011000011100 L
0Q
1P
b110010101000000000000000011100111000000000000000010010010000000000000001001010011111 J
0O
b1011 D
b1011 V
b1011 c
b1000 T
1'
#3471000
15
b1100011 3
b1100011 =
b1100011 F
b10101110 7
#3480000
0'
#3490000
1O
b1111010111011100101111011011010011100111100100101110001101100011 N
0P
1Q
b1001111100000000000000001011100101111 K
0R
1"
b1100 D
b1100 V
b1100 c
b0 S
1'
#3491000
b0 3
b0 =
b0 F
05
b10101111 7
#3492000
b10110 6
#3500000
0'
#3510000
0"
1R
b101011000 G
b10101100001111 L
0Q
1P
b1000000111110000000000000010010010000000000000000011100011000000000000000100000011111 J
0O
b1101 D
b1101 V
b1101 c
b1000 T
1'
#3511000
15
b10000110 3
b10000110 =
b10000110 F
b10110000 7
#3520000
0'
#3530000
1O
b1101110010111101101101001110011110010010111000110110001110000110 N
0P
1Q
b1010011001110000000000000111100110111 K
0R
1"
b1110 D
b1110 V
b1110 c
b0 S
1'
#3531000
b0 3
b0 =
b0 F
05
b10110001 7
#3532000
b10111 6
#3540000
0'
#3550000
0"
1R
b100100000 G
b10010000000101 L
0Q
1P
b101001000100000000000000011100011000000000000000001100011000000000000000101011111110 J
0O
b1111 D
b1111 V
b1111 c
b1000 T
1'
#3551000
b10110010 7
#3560000
0'
#3570000
0P
1Q
b1000101011100000000000000111000010110 K
0R
1"
b10000 D
b10000 V
b10000 c
1'
#3571000
b10110011 7
#3572000
b11000 6
#3580000
0'
#3590000
0?
0"
1R
b11111011 G
b1111101110010 L
0Q
b10001 D
b10001 V
b10001 c
1'
#3591000
b10110100 7
#3600000
0'
#3610000
0R
1"
b11111011 #
b11111011 @
b11111011 M
b1 E
b1 W
b1 d
1'
#3611000
15
b1100000 3
b1100000 =
b1100000 F
b10110101 7
#3612000
b11001 6
#3620000
0'
#3630000
0"
1O
b1011110110110100111001111001001011100011011000111000011001100000 N
b10 E
b10 W
b10 d
b0 S
1'
#3631000
b0 3
b0 =
b0 F
05
b10110110 7
#3640000
0'
#3650000
0O
1P
b111111110110000000000000001100011000000000000000010000110000000000000000011111100000 J
b11 E
b11 W
b11 d
b1000 T
1'
#3651000
15
b1011000 3
b1011000 =
b1011000 F
b10110111 7
#3660000
0'
